Score card generation • harp
…
result <- pooled_bootstrap_score(
  fcst, 
  det_verify,         # the function we want to use in the verification
  {{param}},
  n         = 100,     # the number of bootstrap replicates
  pooled_by = "SID"
)

result

#> ◌ confidence_limits
#> # A tibble: 34 × 18
#>    mname     leadtime num_cases_lower bias_lower rmse_lower mae_lower stde_lower
#>    <chr>        <dbl>           <dbl>      <dbl>      <dbl>     <dbl>      <dbl>
#>  1 AROME_Ar…        0            3.58   0.0439        0.740     0.592      NA   
#>  2 AROME_Ar…        3            3.86   0.000683      1.53      1.26        1.40
#>  3 AROME_Ar…        6            3.54   0.155         1.64      1.35       NA   
#>  4 AROME_Ar…        9            3.87   0.168         1.76      1.46        1.42
#>  5 AROME_Ar…       12            3.56   0.237         1.81      1.51       NA   
#>  6 AROME_Ar…       15            3.84   0.332         1.82      1.52        1.47
#>  7 AROME_Ar…       18            3.56   0.358         1.86      1.56       NA   
#>  8 AROME_Ar…       21            3.83   0.160         1.80      1.46        1.52
#>  9 AROME_Ar…       24            3.51   0.143         1.76      1.43       NA   
#> 10 AROME_Ar…       27            3.85   0.153         1.56      1.28        1.22
#> # … with 24 more rows, and 11 more variables: num_cases_upper <dbl>,
#> #   bias_upper <dbl>, rmse_upper <dbl>, mae_upper <dbl>, stde_upper <dbl>,
#> #   num_cases <int>, bias <dbl>, rmse <dbl>, mae <dbl>, stde <dbl>,
#> #   parameter <chr>
#> 
#> ◌ confidence_of_differences
#> # A tibble: 152 × 12
#>    fcst_model     leadtime score  ref_model pc_diff symbol     y   value    diff
#>    <chr>             <dbl> <chr>  <chr>       <dbl> <chr>  <dbl>   <dbl>   <dbl>
#>  1 AROME_Arctic_…        0 bias   MEPS_prod    0.85 .          1   0.125  0.0210
#>  2 AROME_Arctic_…        0 mae    MEPS_prod   -1    -          1   0.654 -0.321 
#>  3 AROME_Arctic_…        0 num_c… MEPS_prod    0    .          1 627      0     
#>  4 AROME_Arctic_…        0 rmse   MEPS_prod   -1    -          1   1.02  -0.396 
#>  5 AROME_Arctic_…        3 bias   MEPS_prod   -1    -          1   0.249 -0.0981
#>  6 AROME_Arctic_…        3 mae    MEPS_prod    1    +          1   1.35   0.0907
#>  7 AROME_Arctic_…        3 num_c… MEPS_prod    0    .          1 678      0     
#>  8 AROME_Arctic_…        3 rmse   MEPS_prod    1    +          1   2.03   0.138 
#>  9 AROME_Arctic_…        3 stde   MEPS_prod   -0.9  .          1   2.02   0.155 
#> 10 AROME_Arctic_…        6 bias   MEPS_prod   -0.87 .          1   0.344 -0.0411
#> # … with 142 more rows, and 3 more variables: ref_value <dbl>, better <dbl>,
#> #   parameter <chr>
…
